{
    "globalPermissionEntries" : [
        {
            "key" : "global.systemConfig",
            "roles" : ["ROLE_ADMINISTRATOR"]
        },
        {
            "key" : "global.userManagement",
            "roles" : ["ROLE_ADMINISTRATOR"]
        },
        {
            "key" : "global.surveyManagement",
            "roles" : ["ROLE_ADMINISTRATOR"]
        },
        {
            "key" : "global.dashboardManagement",
            "roles" : ["ROLE_MANAGER"]
        },
        {
            "key" : "global.userComments",
            "roles" : ["ROLE_TECHNICIAN"]
        },
        {
            "key" : "global.assetTracker",
            "roles" : ["ROLE_TECHNICIAN"]
        },
        {
            "key" : "global.customFieldManagement",
            "roles" : ["ROLE_MANAGER"]
        },
        {
            "key" : "global.publicTicketFilterManagement",
            "roles" : ["ROLE_TECHNICIAN"]
        }
    ]
}
